\BOOKMARK [1][-]{section*.1}{\376\377\000D\000a\000t\000a\000b\000a\000s\000e\000\040\000S\000t\000r\000u\000c\000t\000u\000r\000e}{}% 1
\BOOKMARK [2][-]{section*.3}{\376\377\000D\000e\000v\000i\000c\000e\000s}{section*.1}% 2
\BOOKMARK [3][-]{section*.5}{\376\377\000D\000e\000v\000i\000c\000e\000s\000\040\000C\000o\000l\000u\000m\000n\000\040\000D\000a\000t\000a}{section*.3}% 3
\BOOKMARK [2][-]{section*.6}{\376\377\000A\000s\000s\000i\000g\000n\000e\000e\000s}{section*.1}% 4
\BOOKMARK [3][-]{section*.7}{\376\377\000A\000s\000s\000i\000g\000n\000e\000e\000s\000\040\000C\000o\000l\000u\000m\000n\000\040\000D\000a\000t\000a}{section*.6}% 5
\BOOKMARK [1][-]{section*.8}{\376\377\000N\000a\000v\000i\000g\000a\000t\000i\000o\000n}{}% 6
\BOOKMARK [2][-]{section*.10}{\376\377\000D\000e\000v\000i\000c\000e\000s}{section*.8}% 7
\BOOKMARK [2][-]{section*.14}{\376\377\000A\000s\000s\000i\000g\000n\000e\000e\000s}{section*.8}% 8
\BOOKMARK [1][-]{section*.16}{\376\377\000S\000e\000a\000r\000c\000h\000i\000n\000g}{}% 9
\BOOKMARK [2][-]{section*.17}{\376\377\000D\000e\000v\000i\000c\000e\000s\000\040\000S\000e\000a\000r\000c\000h}{section*.16}% 10
\BOOKMARK [2][-]{section*.18}{\376\377\000A\000s\000s\000i\000g\000n\000e\000e\000s\000\040\000S\000e\000a\000r\000c\000h}{section*.16}% 11
\BOOKMARK [1][-]{section*.19}{\376\377\000C\000r\000e\000a\000t\000i\000n\000g\000\040\000I\000t\000e\000m\000s}{}% 12
\BOOKMARK [2][-]{section*.22}{\376\377\000C\000r\000e\000a\000t\000i\000n\000g\000\040\000D\000e\000v\000i\000c\000e\000s}{section*.19}% 13
\BOOKMARK [2][-]{section*.23}{\376\377\000C\000r\000e\000a\000t\000i\000n\000g\000\040\000A\000s\000s\000i\000g\000n\000e\000e\000s}{section*.19}% 14
\BOOKMARK [1][-]{section*.24}{\376\377\000R\000e\000a\000d\000i\000n\000g\000\040\000I\000t\000e\000m\000s}{}% 15
\BOOKMARK [1][-]{section*.27}{\376\377\000U\000p\000d\000a\000t\000i\000n\000g\000\040\000I\000t\000e\000m\000s}{}% 16
\BOOKMARK [2][-]{section*.28}{\376\377\000U\000p\000d\000a\000t\000i\000n\000g\000\040\000D\000e\000v\000i\000c\000e\000s}{section*.27}% 17
\BOOKMARK [2][-]{section*.30}{\376\377\000U\000p\000d\000a\000t\000i\000n\000g\000\040\000A\000s\000s\000i\000g\000n\000e\000e\000s}{section*.27}% 18
\BOOKMARK [1][-]{section*.33}{\376\377\000D\000e\000l\000e\000t\000i\000n\000g\000\040\000I\000t\000e\000m\000s}{}% 19
\BOOKMARK [1][-]{section*.36}{\376\377\000E\000x\000p\000o\000r\000t\000i\000n\000g\000\040\000D\000a\000t\000a}{}% 20
\BOOKMARK [1][-]{section*.40}{\376\377\000I\000m\000p\000o\000r\000t\000i\000n\000g\000\040\000D\000a\000t\000a}{}% 21
\BOOKMARK [2][-]{section*.45}{\376\377\000I\000m\000p\000o\000r\000t\000i\000n\000g\000\040\000D\000e\000v\000i\000c\000e\000s}{section*.40}% 22
\BOOKMARK [2][-]{section*.47}{\376\377\000I\000m\000p\000o\000r\000t\000i\000n\000g\000\040\000A\000s\000s\000i\000g\000n\000e\000e\000s}{section*.40}% 23
\BOOKMARK [1][-]{section*.49}{\376\377\000A\000d\000m\000i\000n\000\040\000I\000n\000f\000o\000r\000m\000a\000t\000i\000o\000n}{}% 24
\BOOKMARK [2][-]{section*.50}{\376\377\000A\000p\000p\000l\000i\000c\000a\000t\000i\000o\000n\000\040\000F\000i\000l\000e\000\040\000S\000t\000r\000u\000c\000t\000u\000r\000e}{section*.49}% 25
\BOOKMARK [2][-]{section*.51}{\376\377\000d\000b\000.\000p\000h\000p}{section*.49}% 26
\BOOKMARK [2][-]{section*.53}{\376\377\000i\000n\000c\000l\000u\000d\000e\000s}{section*.49}% 27
\BOOKMARK [3][-]{section*.55}{\376\377\000a\000s\000s\000i\000g\000n\000e\000e\000s}{section*.53}% 28
\BOOKMARK [3][-]{section*.56}{\376\377\000d\000e\000v\000i\000c\000e\000s}{section*.53}% 29
\BOOKMARK [3][-]{section*.57}{\376\377\000s\000e\000a\000r\000c\000h\000-\000s\000u\000g\000g\000e\000s\000t\000i\000o\000n\000s}{section*.53}% 30
\BOOKMARK [2][-]{section*.59}{\376\377\000C\000h\000a\000n\000g\000i\000n\000g\000\040\000D\000a\000t\000a\000b\000a\000s\000e\000\040\000S\000t\000r\000u\000c\000t\000u\000r\000e}{section*.49}% 31
\BOOKMARK [3][-]{lstnumber.-1.11}{\376\377\000C\000h\000a\000n\000g\000i\000n\000g\000\040\000D\000e\000v\000i\000c\000e\000s\000\040\000T\000a\000b\000l\000e}{section*.59}% 32
\BOOKMARK [3][-]{lstnumber.-9.5}{\376\377\000C\000h\000a\000n\000g\000i\000n\000g\000\040\000A\000s\000s\000i\000g\000n\000e\000e\000s\000\040\000T\000a\000b\000l\000e}{section*.59}% 33
