\relax 
\providecommand\hyper@newdestlabel[2]{}
\providecommand\babel@aux[2]{}
\@nameuse{bbl@beforestart}
\providecommand\HyperFirstAtBeginDocument{\AtBeginDocument}
\HyperFirstAtBeginDocument{\ifx\hyper@anchor\@undefined
\global\let\oldcontentsline\contentsline
\gdef\contentsline#1#2#3#4{\oldcontentsline{#1}{#2}{#3}}
\global\let\oldnewlabel\newlabel
\gdef\newlabel#1#2{\newlabelxx{#1}#2}
\gdef\newlabelxx#1#2#3#4#5#6{\oldnewlabel{#1}{{#2}{#3}}}
\AtEndDocument{\ifx\hyper@anchor\@undefined
\let\contentsline\oldcontentsline
\let\newlabel\oldnewlabel
\fi}
\fi}
\global\let\hyper@last\relax 
\gdef\HyperFirstAtBeginDocument#1{#1}
\providecommand\HyField@AuxAddToFields[1]{}
\providecommand\HyField@AuxAddToCoFields[2]{}
\providecommand \oddpage@label [2]{}
\babel@aux{nil}{}
\@writefile{toc}{\contentsline {section}{Database Structure}{2}{section*.1}\protected@file@percent }
\newlabel{sec:Database-Structure}{{}{2}{Database Structure}{section*.2}{}}
\@writefile{toc}{\contentsline {paragraph}{}{2}{section*.3}\protected@file@percent }
\@writefile{toc}{\contentsline {subsection}{Devices}{2}{section*.3}\protected@file@percent }
\newlabel{sec:Devices-Structure}{{}{2}{Devices}{section*.4}{}}
\@writefile{toc}{\contentsline {paragraph}{}{2}{section*.5}\protected@file@percent }
\@writefile{toc}{\contentsline {subsubsection}{Devices Column Data}{2}{section*.5}\protected@file@percent }
\newlabel{sec:Devices-Column-Data}{{}{2}{Devices Column Data}{section*.6}{}}
\@writefile{toc}{\contentsline {subsection}{Assignees}{2}{section*.6}\protected@file@percent }
\newlabel{sec:Assignees-Structure}{{}{2}{Assignees}{section*.7}{}}
\@writefile{toc}{\contentsline {subsubsection}{Assignees Column Data}{2}{section*.7}\protected@file@percent }
\newlabel{sec:Assignees-Column-Data}{{}{2}{Assignees Column Data}{section*.8}{}}
\@writefile{toc}{\contentsline {section}{Navigation}{3}{section*.8}\protected@file@percent }
\newlabel{sec:Navigation}{{}{3}{Navigation}{section*.9}{}}
\@writefile{toc}{\contentsline {paragraph}{}{3}{section*.10}\protected@file@percent }
\@writefile{toc}{\contentsline {subsection}{Devices}{3}{section*.10}\protected@file@percent }
\newlabel{sec:Devices-Navigation}{{}{3}{Devices}{section*.11}{}}
\@writefile{toc}{\contentsline {paragraph}{}{3}{section*.12}\protected@file@percent }
\@writefile{toc}{\contentsline {paragraph}{}{3}{section*.13}\protected@file@percent }
\@writefile{toc}{\contentsline {paragraph}{}{3}{section*.14}\protected@file@percent }
\@writefile{toc}{\contentsline {subsection}{Assignees}{4}{section*.14}\protected@file@percent }
\newlabel{Assignees-Navigation}{{}{4}{Assignees}{section*.15}{}}
\@writefile{toc}{\contentsline {paragraph}{}{4}{section*.16}\protected@file@percent }
\@writefile{toc}{\contentsline {section}{Searching}{5}{section*.16}\protected@file@percent }
\newlabel{sec:Searching}{{}{5}{Searching}{section*.17}{}}
\@writefile{toc}{\contentsline {subsection}{Devices Search}{5}{section*.17}\protected@file@percent }
\newlabel{sec:Devices-Search}{{}{5}{Devices Search}{section*.18}{}}
\@writefile{toc}{\contentsline {subsection}{Assignees Search}{5}{section*.18}\protected@file@percent }
\newlabel{sec:Assignees-Search}{{}{5}{Assignees Search}{section*.19}{}}
\@writefile{toc}{\contentsline {section}{Creating Items}{6}{section*.19}\protected@file@percent }
\newlabel{sec:Creating-Items}{{}{6}{Creating Items}{section*.20}{}}
\@writefile{toc}{\contentsline {paragraph}{}{6}{section*.21}\protected@file@percent }
\@writefile{toc}{\contentsline {paragraph}{}{6}{section*.22}\protected@file@percent }
\@writefile{toc}{\contentsline {subsection}{Creating Devices}{6}{section*.22}\protected@file@percent }
\newlabel{sec:Creating-Devices}{{}{6}{Creating Devices}{section*.23}{}}
\@writefile{toc}{\contentsline {subsection}{Creating Assignees}{6}{section*.23}\protected@file@percent }
\newlabel{sec:Creating-Assignees}{{}{6}{Creating Assignees}{section*.24}{}}
\@writefile{toc}{\contentsline {section}{Reading Items}{7}{section*.24}\protected@file@percent }
\newlabel{sec:Reading-Items}{{}{7}{Reading Items}{section*.25}{}}
\@writefile{toc}{\contentsline {paragraph}{}{7}{section*.26}\protected@file@percent }
\@writefile{toc}{\contentsline {paragraph}{}{7}{section*.27}\protected@file@percent }
\@writefile{toc}{\contentsline {section}{Updating Items}{7}{section*.27}\protected@file@percent }
\newlabel{sec:Updating-Items}{{}{7}{Updating Items}{section*.28}{}}
\@writefile{toc}{\contentsline {subsection}{Updating Devices}{7}{section*.28}\protected@file@percent }
\newlabel{sec:Updating-Devices}{{}{7}{Updating Devices}{section*.29}{}}
\@writefile{toc}{\contentsline {paragraph}{}{7}{section*.30}\protected@file@percent }
\@writefile{toc}{\contentsline {subsection}{Updating Assignees}{7}{section*.30}\protected@file@percent }
\newlabel{sec:Updating-Assignees}{{}{7}{Updating Assignees}{section*.31}{}}
\@writefile{toc}{\contentsline {paragraph}{}{7}{section*.32}\protected@file@percent }
\@writefile{toc}{\contentsline {paragraph}{}{8}{section*.33}\protected@file@percent }
\@writefile{toc}{\contentsline {section}{Deleting Items}{8}{section*.33}\protected@file@percent }
\newlabel{sec:Deleting-Items}{{}{8}{Deleting Items}{section*.34}{}}
\@writefile{toc}{\contentsline {paragraph}{}{8}{section*.35}\protected@file@percent }
\@writefile{toc}{\contentsline {paragraph}{}{8}{section*.36}\protected@file@percent }
\@writefile{toc}{\contentsline {section}{Exporting Data}{8}{section*.36}\protected@file@percent }
\newlabel{sec:Exporting-Data}{{}{8}{Exporting Data}{section*.37}{}}
\@writefile{toc}{\contentsline {paragraph}{}{8}{section*.38}\protected@file@percent }
\@writefile{toc}{\contentsline {paragraph}{}{8}{section*.39}\protected@file@percent }
\@writefile{toc}{\contentsline {paragraph}{}{8}{section*.40}\protected@file@percent }
\@writefile{toc}{\contentsline {section}{Importing Data}{8}{section*.40}\protected@file@percent }
\newlabel{sec:Importing-Data}{{}{8}{Importing Data}{section*.41}{}}
\@writefile{toc}{\contentsline {paragraph}{}{8}{section*.42}\protected@file@percent }
\@writefile{toc}{\contentsline {paragraph}{}{8}{section*.43}\protected@file@percent }
\@writefile{toc}{\contentsline {paragraph}{}{8}{section*.44}\protected@file@percent }
\@writefile{toc}{\contentsline {paragraph}{}{9}{section*.45}\protected@file@percent }
\@writefile{toc}{\contentsline {subsection}{Importing Devices}{9}{section*.45}\protected@file@percent }
\newlabel{sec:Importing-Devices}{{}{9}{Importing Devices}{section*.46}{}}
\@writefile{toc}{\contentsline {paragraph}{}{9}{section*.47}\protected@file@percent }
\@writefile{toc}{\contentsline {subsection}{Importing Assignees}{9}{section*.47}\protected@file@percent }
\newlabel{sec:Importing-Assignees}{{}{9}{Importing Assignees}{section*.48}{}}
\@writefile{toc}{\contentsline {paragraph}{}{9}{section*.49}\protected@file@percent }
\@writefile{toc}{\contentsline {section}{Admin Information}{10}{section*.49}\protected@file@percent }
\@writefile{toc}{\contentsline {subsection}{Application File Structure}{10}{section*.50}\protected@file@percent }
\@writefile{toc}{\contentsline {subsection}{db.php}{11}{section*.51}\protected@file@percent }
\@writefile{toc}{\contentsline {paragraph}{}{11}{section*.53}\protected@file@percent }
\@writefile{toc}{\contentsline {subsection}{includes}{11}{section*.53}\protected@file@percent }
\@writefile{toc}{\contentsline {paragraph}{}{11}{section*.55}\protected@file@percent }
\@writefile{toc}{\contentsline {subsubsection}{assignees}{11}{section*.55}\protected@file@percent }
\@writefile{toc}{\contentsline {subsubsection}{devices}{11}{section*.56}\protected@file@percent }
\@writefile{toc}{\contentsline {subsubsection}{search-suggestions}{11}{section*.57}\protected@file@percent }
\@writefile{toc}{\contentsline {paragraph}{}{11}{section*.59}\protected@file@percent }
\@writefile{toc}{\contentsline {subsection}{Changing Database Structure}{12}{section*.59}\protected@file@percent }
\@writefile{toc}{\contentsline {paragraph}{}{12}{section*.61}\protected@file@percent }
\@writefile{lot}{\contentsline {table}{\numberline {1}{\ignorespaces Devices Table}}{12}{table.1}\protected@file@percent }
\@writefile{lot}{\contentsline {table}{\numberline {2}{\ignorespaces Assignees Table}}{12}{table.2}\protected@file@percent }
\@writefile{toc}{\contentsline {paragraph}{}{12}{section*.62}\protected@file@percent }
\@writefile{toc}{\contentsline {paragraph}{}{12}{section*.63}\protected@file@percent }
\@writefile{toc}{\contentsline {subsubsection}{Changing Devices Table}{12}{lstnumber.-1.11}\protected@file@percent }
\@writefile{toc}{\contentsline {subsubsection}{Changing Assignees Table}{15}{lstnumber.-9.5}\protected@file@percent }
\gdef \@abspage@last{16}
