\relax 
\providecommand\hyper@newdestlabel[2]{}
\providecommand\babel@aux[2]{}
\@nameuse{bbl@beforestart}
\providecommand\HyperFirstAtBeginDocument{\AtBeginDocument}
\HyperFirstAtBeginDocument{\ifx\hyper@anchor\@undefined
\global\let\oldcontentsline\contentsline
\gdef\contentsline#1#2#3#4{\oldcontentsline{#1}{#2}{#3}}
\global\let\oldnewlabel\newlabel
\gdef\newlabel#1#2{\newlabelxx{#1}#2}
\gdef\newlabelxx#1#2#3#4#5#6{\oldnewlabel{#1}{{#2}{#3}}}
\AtEndDocument{\ifx\hyper@anchor\@undefined
\let\contentsline\oldcontentsline
\let\newlabel\oldnewlabel
\fi}
\fi}
\global\let\hyper@last\relax 
\gdef\HyperFirstAtBeginDocument#1{#1}
\providecommand\HyField@AuxAddToFields[1]{}
\providecommand\HyField@AuxAddToCoFields[2]{}
\providecommand \oddpage@label [2]{}
\babel@aux{nil}{}
\@writefile{toc}{\contentsline {section}{Database Structure}{2}{section*.1}\protected@file@percent }
\@writefile{toc}{\contentsline {subsection}{Devices}{2}{section*.2}\protected@file@percent }
\@writefile{toc}{\contentsline {subsubsection}{Devices Column Data}{2}{section*.3}\protected@file@percent }
\@writefile{toc}{\contentsline {subsection}{Assignees}{2}{section*.4}\protected@file@percent }
\@writefile{toc}{\contentsline {subsubsection}{Assignees Column Data}{2}{section*.5}\protected@file@percent }
\@writefile{toc}{\contentsline {section}{Navigation}{3}{section*.6}\protected@file@percent }
\@writefile{toc}{\contentsline {paragraph}{}{3}{section*.8}\protected@file@percent }
\@writefile{toc}{\contentsline {subsection}{Devices}{3}{section*.8}\protected@file@percent }
\@writefile{toc}{\contentsline {paragraph}{}{3}{section*.10}\protected@file@percent }
\@writefile{toc}{\contentsline {paragraph}{}{3}{section*.11}\protected@file@percent }
\@writefile{toc}{\contentsline {subsection}{Assignees}{3}{section*.11}\protected@file@percent }
\@writefile{toc}{\contentsline {section}{Searching}{4}{section*.12}\protected@file@percent }
\@writefile{toc}{\contentsline {subsection}{Devices Search}{4}{section*.13}\protected@file@percent }
\@writefile{toc}{\contentsline {subsection}{Assignees Search}{4}{section*.14}\protected@file@percent }
\@writefile{toc}{\contentsline {section}{Creating Items}{5}{section*.15}\protected@file@percent }
\@writefile{toc}{\contentsline {subsection}{Creating Devices}{5}{section*.16}\protected@file@percent }
\@writefile{toc}{\contentsline {subsection}{Creating Assignees}{5}{section*.17}\protected@file@percent }
\@writefile{toc}{\contentsline {section}{Reading Items}{6}{section*.18}\protected@file@percent }
\@writefile{toc}{\contentsline {section}{Updating Items}{6}{section*.19}\protected@file@percent }
\@writefile{toc}{\contentsline {subsection}{Updating Devices}{6}{section*.20}\protected@file@percent }
\@writefile{toc}{\contentsline {subsection}{Updating Assignees}{6}{section*.21}\protected@file@percent }
\@writefile{toc}{\contentsline {paragraph}{}{6}{section*.23}\protected@file@percent }
\@writefile{toc}{\contentsline {paragraph}{}{6}{section*.24}\protected@file@percent }
\@writefile{toc}{\contentsline {section}{Deleting Items}{7}{section*.24}\protected@file@percent }
\@writefile{toc}{\contentsline {paragraph}{}{7}{section*.26}\protected@file@percent }
\@writefile{toc}{\contentsline {section}{Exporting Data}{7}{section*.26}\protected@file@percent }
\@writefile{toc}{\contentsline {paragraph}{}{7}{section*.28}\protected@file@percent }
\@writefile{toc}{\contentsline {paragraph}{}{7}{section*.29}\protected@file@percent }
\@writefile{toc}{\contentsline {paragraph}{}{7}{section*.30}\protected@file@percent }
\@writefile{toc}{\contentsline {section}{Importing Data}{7}{section*.30}\protected@file@percent }
\@writefile{toc}{\contentsline {subsection}{Importing Devices}{7}{section*.31}\protected@file@percent }
\@writefile{toc}{\contentsline {paragraph}{}{7}{section*.32}\protected@file@percent }
\@writefile{toc}{\contentsline {subsection}{Importing Assignees}{7}{section*.33}\protected@file@percent }
\@writefile{toc}{\contentsline {paragraph}{}{7}{section*.34}\protected@file@percent }
\gdef \@abspage@last{7}
